Text prediction via N-gram Stupid Back-off models
…
More in detail, given a character vector test, where each entry of test represents a single document, eval_sbo_predictor() performs the following steps:

Sample a single sentence from each entry of test, i.e. from each document.

Sample a single \(N\)-gram from each sentence obtained in the previous step.

Predict next words from the \((N-1)\)-gram prefix.

Return all predictions, together with the true word completions.

For a reasonable estimate of prediction accuracy, the various entries of test should be independent documents, e.g. single tweets as in the sbo::twitter_test example dataset, which we use below to test the previously trained predictor p.

set.seed(840)
(evaluation <- eval_sbo_predictor(p, test = sbo::twitter_test))
#> # A tibble: 10,000 x 4
#>    input             true      preds[,1] [,2]   [,3]  correct
#>    <chr>             <chr>     <chr>     <chr>  <chr> <lgl>  
#>  1 "come back"       to        to        <EOS>  and   TRUE   
#>  2 "amazing should"  have      post      be     have  TRUE   
#>  3 "u at"            <EOS>     <EOS>     the    next  TRUE   
#>  4 "they'll be"      respected a         with   in    FALSE  
#>  5 " everyone"       follow    is        should loves FALSE  
#>  6 "luck this"       weekend   weekend   season is    TRUE   
#>  7 "atlanta weather" is        <EOS>     in     to    FALSE  
#>  8 "iphone 4s"       just      <EOS>     the    me    FALSE  
#>  9 "is it"           working   <EOS>     that   just  FALSE  
#> 10 "did you"         listen    know      get    see   FALSE  
#> # … with 9,990 more rows
…
\(k\)-gram tokenization

\(k\)-gram frequency tables form the building blocks of any \(N\)-gram based language model. The function sbo::kgram_freqs() extracts frequency tables from a training corpus and stores them into a class sbo_kgram_freq object. For example:

f <- kgram_freqs(corpus = sbo::twitter_train, 
                 N = 3, 
                 dict = target ~ 0.75,
                 .preprocess = sbo::preprocess,
                 EOS = ".?!:;"
                 )

stores \(k\)-gram frequency tables into f. This object can itself be used for text prediction:

predict(f, "i love")
#> # A tibble: 1,009 x 2
#>    completion probability
#>    <chr>            <dbl>
#>  1 you             0.222 
#>  2 it              0.0573
#>  3 my              0.0549
#>  4 the             0.0524
#>  5 your            0.0312
#>  6 this            0.0312
#>  7 that            0.0287
#>  8 how             0.0249
#>  9 u               0.0175
#> 10 when            0.0150
#> # … with 999 more rows
…
