hdpGLM
…
#> Warning in model.matrix.default(mt1, reg.matrix, stats::contrasts): non-list
#> contrasts argument ignored

summary(mod)
#> 
#> Generating summary for beta...
#> Warning: `data_frame()` is deprecated as of tibble 1.1.0.
#> Please use `tibble()` instead.
#> This warning is displayed once every 8 hours.
#> Call `lifecycle::last_warnings()` to see where this warning was generated.
#> 
#> Generating summary for tau...
#> $beta
#> # A tibble: 110 x 9
#>        k     j Parameter term           Mean  Median     SD HPD.lower HPD.upper
#>    <dbl> <dbl> <chr>     <chr>         <dbl>   <dbl>  <dbl>     <dbl>     <dbl>
#>  1     1     1 beta[0]   (Intercept) -3.87   -3.87   0.0275   -3.93      -3.81 
#>  2     1     1 beta[1]   inequality   1.71    1.96   0.590     0.168      2.05 
#>  3     1     1 beta[2]   income       3.86    3.86   0.0415    3.78       3.96 
#>  4     1     1 beta[3]   ideology    -8.34   -8.34   0.0456   -8.44      -8.25 
#>  5     1     1 sigma     sigma        1.00    0.999  0.0391    0.952      1.11 
#>  6     1     2 beta[0]   (Intercept) -0.128   0.0136 0.379    -0.669      0.395
#>  7     1     2 beta[1]   inequality  -0.776  -0.725  0.443    -1.05       0.567
#>  8     1     2 beta[2]   income       0.432   0.378  0.441    -0.697      0.993
#>  9     1     2 beta[3]   ideology    -3.16   -3.08   1.09     -3.77       0.236
#> 10     1     2 sigma     sigma        0.0923  0.0910 0.0369    0.0497     0.108
#> # … with 100 more rows
…
