…
After we find the data quality is good to move to the next step, then we can perform an analysis for a sgRNA-level using measure_sgrna_stats

sgrna_stat <- measure_sgrna_stats(cb2_count$count, df_design, "High", "Base")
sgrna_stat

## # A tibble: 25 x 19
##    sgRNA gene    n_a   n_b phat_a[,1] vhat_a[,1] phat_b[,1] vhat_b[,1]  cpm_a
##    <chr> <chr> <int> <int>      <dbl>      <dbl>      <dbl>      <dbl>  <dbl>
##  1 RAB_4 RAB       2     2   0.0109      4.00e-5     0.0216  0.000181  1.08e4
##  2 NEGC… NEGC…     2     2   0           0.          0.0251  0.000369  0.    
##  3 TRIM… TRIM…     2     2   0.00441     3.22e-6     0.0535  0.000337  4.46e3
##  4 POSC… POSC…     2     2   0           0.          0.0424  0.000761  0.    
##  5 TRIM… TRIM…     2     2   0.00147     1.08e-6     0.0306  0.0000988 1.47e3
##  6 RAB_2 RAB       2     2   0.0318      3.29e-4     0.0329  0.000331  3.17e4
##  7 TRIM… TRIM…     2     2   0.00220     1.61e-6     0.0438  0.000547  2.23e3
##  8 PARK… PARK2     2     2   0.181       9.53e-4     0.0432  0.0000319 1.81e5
##  9 PARK… PARK2     2     2   0.103       3.46e-4     0.0499  0.0000707 1.03e5
## 10 NEGC… NEGC…     2     2   0.000734    5.39e-7     0.0132  0.0000175 7.59e2
## # … with 15 more rows, and 10 more variables: cpm_b <dbl>, logFC <dbl>,
## #   t_value[,1] <dbl>, df[,1] <dbl>, p_ts[,1] <dbl>, p_pa[,1] <dbl>,
## #   p_pb[,1] <dbl>, fdr_ts <dbl>, fdr_pa <dbl>, fdr_pb <dbl>
…
