Updated JSS code
…
EB residuals are now called .ranef. residuals

# Model fm3, page 11
fm3 <- lmer(normexam ~ standLRT + I(standLRT^2) + I(standLRT^3) + sex +
              (standLRT | school), Exam, REML = FALSE)

## Extract level-2 EB residuals
resid_fm3 <- hlm_resid(fm3, level = "school")
#> Warning in LSresids.lmerMod(object, level = level, stand = standardize): The model matrix is likely rank deficient. Some LS residuals cannot be calculated.
#> It is recommended to use EB (.ranef) group level residuals for this model.
resid_fm3
#> # A tibble: 65 x 5
#>    school .ranef.intercept .ranef.stand_lrt .ls.intercept .ls.stand_lrt
#>    <chr>             <dbl>            <dbl>         <dbl>         <dbl>
#>  1 1                0.404            0.127          0.533       0.348  
#>  2 2                0.401            0.159         NA          NA      
#>  3 3                0.495            0.0780         0.523       0.00905
#>  4 4                0.0597           0.120          0.265       0.186  
#>  5 5                0.251            0.0711         0.186       0.0503 
#>  6 6                0.448            0.0482        NA          NA      
#>  7 7                0.297           -0.151         NA          NA      
#>  8 8               -0.0788           0.0131        NA          NA      
#>  9 9               -0.157           -0.0660        -0.282      -0.251  
#> 10 10              -0.282           -0.137         -0.172      -0.451  
#> # … with 55 more rows
## Construct school-level data set
library(dplyr)
SchoolExam <- Exam %>%
  group_by(school) %>%
  dplyr::summarize(
    size = length(school),
    schgend = unique(schgend),
    schavg = unique(schavg),
    type = unique(type), 
    schLRT = mean(standLRT)
  )

SchoolExam <- SchoolExam %>% left_join(resid_fm3, by = "school")
SchoolExam
#> # A tibble: 65 x 10
#>    school  size schgend  schavg type   schLRT .ranef.intercept .ranef.stand_lrt
#>    <chr>  <int> <fct>     <dbl> <fct>   <dbl>            <dbl>            <dbl>
#>  1 1         73 mixed    0.166  Mxd    0.166            0.404            0.127 
#>  2 2         55 girls    0.395  Sngl   0.395            0.401            0.159 
#>  3 3         52 mixed    0.514  Mxd    0.514            0.495            0.0780
#>  4 4         79 mixed    0.0918 Mxd    0.0918           0.0597           0.120 
#>  5 5         35 mixed    0.211  Mxd    0.211            0.251            0.0711
#>  6 6         80 girls    0.638  Sngl   0.638            0.448            0.0482
#>  7 7         88 girls   -0.0290 Sngl  -0.0290           0.297           -0.151 
#>  8 8        102 girls   -0.0405 Sngl  -0.0405          -0.0788           0.0131
#>  9 9         34 mixed   -0.494  Mxd   -0.494           -0.157           -0.0660
#> 10 10        50 mixed    0.189  Mxd    0.189           -0.282           -0.137 
#> # … with 55 more rows, and 2 more variables: .ls.intercept <dbl>,
#> #   .ls.stand_lrt <dbl>
…
ggplot(resid_fm4, aes(sample = .ranef.stand_lrt)) +
  stat_qq_band() +
  stat_qq_line() + 
  stat_qq_point() +
  labs(x = "Theoretical Quantiles", y = "Sample Quantiles")

Influence analysis

We can now use hlm_influence to pull off all of the case-deletion diagnostics for the fixed effects at the specified level:

# Calculating influence diagnostics for model fm4
influence_fm4 <- hlm_influence(fm4, level = "school")
influence_fm4
#> # A tibble: 65 x 6
#>    school  cooksd mdffits covtrace covratio leverage.overall
#>    <fct>    <dbl>   <dbl>    <dbl>    <dbl>            <dbl>
#>  1 1      0.0216  0.0210    0.141      1.15           0.0217
#>  2 2      0.0144  0.0141    0.137      1.14           0.0267
#>  3 3      0.0384  0.0361    0.140      1.15           0.0257
#>  4 4      0.0165  0.0160    0.133      1.14           0.0201
#>  5 5      0.00889 0.00868   0.0677     1.07           0.0313
#>  6 6      0.0190  0.0171    0.166      1.17           0.0179
#>  7 7      0.0413  0.0394    0.111      1.12           0.0174
#>  8 8      0.00712 0.00668   0.205      1.22           0.0172
#>  9 9      0.00418 0.00408   0.140      1.15           0.0400
#> 10 10     0.00956 0.00935   0.0819     1.08           0.0249
#> # … with 55 more rows
…
