RWDataPlyr Workflow
…
After the rwd_agg is specified the object is passed to rdf_aggregate() along with a few parameters specifying where the data are stored, and a tbl_df is returned:

rdf_aggregate(
  rwa1,
  rdf_dir = system.file(
    "extdata/Scenario/ISM1988_2014,2007Dems,IG,Most/",
    package = "RWDataPlyr"
  )
)
#>    Processing 5 slots in KeySlots.rdf
#>    Processing 1 slot in SystemConditions.rdf
#> # A tibble: 124 x 5
#> # Groups:   Year [6]
#>     Year Month    TraceNumber Variable   Value
#>  * <dbl> <chr>          <int> <chr>      <dbl>
#>  1  2018 December           1 meadLt1060     0
#>  2  2018 December           2 meadLt1060     0
#>  3  2018 December           3 meadLt1060     0
#>  4  2018 December           4 meadLt1060     0
#>  5  2019 December           1 meadLt1060     0
#>  6  2019 December           2 meadLt1060     0
#>  7  2019 December           3 meadLt1060     0
#>  8  2019 December           4 meadLt1060     0
#>  9  2020 December           1 meadLt1060     0
#> 10  2020 December           2 meadLt1060     0
#> # ... with 114 more rows

To keep all of the columns (attribute info), specify keep_cols = TRUE:

rdf_aggregate(
  rwa1,
  rdf_dir = system.file(
    "extdata/Scenario/ISM1988_2014,2007Dems,IG,Most/",
    package = "RWDataPlyr"
  ),
  keep_cols = TRUE
)
#>    Processing 5 slots in KeySlots.rdf
#>    Processing 1 slot in SystemConditions.rdf
#> # A tibble: 124 x 11
#> # Groups:   Year, ObjectName, SlotName, ObjectType, Unit, TraceNumber,
#> #   RulesetFileName [64]
#>     Year Month ObjectName SlotName ObjectType Unit  TraceNumber RulesetFileName
#>  * <dbl> <chr> <chr>      <chr>    <chr>      <chr>       <int> <chr>          
#>  1  2018 Dece~ Mead       Pool El~ LevelPowe~ ft              1 "$CRSS_DIR\\ru~
#>  2  2018 Dece~ Mead       Pool El~ LevelPowe~ ft              2 "$CRSS_DIR\\ru~
#>  3  2018 Dece~ Mead       Pool El~ LevelPowe~ ft              3 "$CRSS_DIR\\ru~
#>  4  2018 Dece~ Mead       Pool El~ LevelPowe~ ft              4 "$CRSS_DIR\\ru~
#>  5  2019 Dece~ Mead       Pool El~ LevelPowe~ ft              1 "$CRSS_DIR\\ru~
#>  6  2019 Dece~ Mead       Pool El~ LevelPowe~ ft              2 "$CRSS_DIR\\ru~
#>  7  2019 Dece~ Mead       Pool El~ LevelPowe~ ft              3 "$CRSS_DIR\\ru~
#>  8  2019 Dece~ Mead       Pool El~ LevelPowe~ ft              4 "$CRSS_DIR\\ru~
#>  9  2020 Dece~ Mead       Pool El~ LevelPowe~ ft              1 "$CRSS_DIR\\ru~
#> 10  2020 Dece~ Mead       Pool El~ LevelPowe~ ft              2 "$CRSS_DIR\\ru~
#> # ... with 114 more rows, and 3 more variables: InputDMIName <chr>,
#> #   Variable <chr>, Value <dbl>
…
